<svg xmlns="http://www.w3.org/2000/svg" width="40" height="34" viewBox="0 0 40 34">
  <path fill="#FFAE00" fill-rule="evenodd" d="M25,23.376 L25,23.376 L25,19.834 L40,19.834 L40,30.46 C40.0120783,31.4027317 39.6321636,32.3081527 38.951,32.96 C38.2886452,33.63803 37.3767556,34.014067 36.429,34 L3.571,34 C2.62324441,34.014067 1.71135478,33.63803 1.049,32.96 C0.367836356,32.3081527 -0.012078292,31.4027317 1.6549262e-15,30.46 L1.6549262e-15,19.834 L15.005,19.834 L15.005,23.376 C15.0007036,23.7538746 15.1544041,24.1163757 15.429,24.376 C15.6907352,24.64718 16.05212,24.799323 16.429,24.797 L23.576,24.797 C23.9528567,24.7992058 24.3141972,24.6470814 24.576,24.376 C24.8504936,24.1163047 25.0041742,23.7538505 25,23.376 Z M17.142,19.834 L22.857,19.834 L22.857,22.667 L17.143,22.667 L17.143,19.834 L17.142,19.834 Z M38.951,6.706 C39.6324197,7.35808557 40.0123568,8.26392223 40,9.207 L40,17.707 L3.55271368e-15,17.707 L3.55271368e-15,9.207 C-0.0117999387,8.26461447 0.368092279,7.35960908 1.049,6.708 C1.7111175,6.02950277 2.62307373,5.65307675 3.571,5.667 L11.429,5.667 L11.429,2.125 C11.4192128,1.55829189 11.6456387,1.01305841 12.054,0.62 C12.4534201,0.213690203 13.0023389,-0.0105058826 13.572,-8.8817842e-16 L26.429,-8.8817842e-16 C26.9980645,-0.0109918562 27.5466159,0.212478674 27.946,0.618 C28.3542592,1.01112809 28.5806658,1.55631501 28.571,2.123 L28.571,5.665 L36.429,5.665 C37.3769263,5.65107675 38.2888825,6.02750277 38.951,6.706 Z M25.714,5.665 L25.714,2.831 L14.286,2.831 L14.286,5.665 L25.714,5.665 Z"/>
</svg>
