<svg xmlns="http://www.w3.org/2000/svg" width="30" height="21" viewBox="0 0 30 21">
  <path d="M14.6666667,0.5 C21.3333333,0.5 27.0266667,4.64666667 29.3333333,10.5 C27.0266667,16.3533333 21.3333333,20.5 14.6666667,20.5 C8,20.5 2.30666667,16.3533333 0,10.5 C2.30666667,4.64666667 8,0.5 14.6666667,0.5 Z M14.6666667,17.1666667 C18.3466667,17.1666667 21.3333333,14.18 21.3333333,10.5 C21.3333333,6.82 18.3466667,3.83333333 14.6666667,3.83333333 C10.9866667,3.83333333 8,6.82 8,10.5 C8,14.18 10.9866667,17.1666667 14.6666667,17.1666667 Z M14.6666667,6.5 C16.88,6.5 18.6666667,8.28666667 18.6666667,10.5 C18.6666667,12.7133333 16.88,14.5 14.6666667,14.5 C12.4533333,14.5 10.6666667,12.7133333 10.6666667,10.5 C10.6666667,8.28666667 12.4533333,6.5 14.6666667,6.5 Z"/>
</svg>
