<svg xmlns="http://www.w3.org/2000/svg" width="12" height="20" viewBox="0 0 12 20">
  <path d="M11.7528507,6.85788467 C11.6977845,6.74056575 11.5791894,6.66526918 11.4485497,6.66526918 L7.46835089,6.66526918 L11.3964749,0.511571429 C11.4619719,0.408936898 11.4659867,0.278964403 11.4069056,0.172658774 C11.3477852,0.0660016577 11.2348974,0 11.1126417,0 L5.73854671,0 C5.61125277,0 5.49501931,0.0713130337 5.43794565,0.184296937 L0.399719265,10.1821812 C0.347644472,10.2851672 0.353351838,10.4077975 0.414479694,10.506097 C0.4759618,10.6043965 0.583771973,10.6643838 0.700320319,10.6643838 L4.15418195,10.6643838 L0.390626841,19.5331711 C0.326468177,19.6848187 0.383581196,19.860758 0.524966424,19.9467554 C0.579363525,19.9797563 0.639822241,19.9957294 0.699966069,19.9957294 C0.79636151,19.9957294 0.891418672,19.9547225 0.957269865,19.8774342 L11.7054993,7.21343443 C11.7897715,7.11415856 11.807917,6.97551603 11.7528507,6.85788467 Z"/>
</svg>
