<svg xmlns="http://www.w3.org/2000/svg" width="21" height="21" viewBox="0 0 21 21">
  <path d="M14.0220472,16.5480315 L11.1086614,16.5480315 L11.1086614,7.96535433 L14.0220472,7.96535433 L14.0220472,16.5480315 Z M18.2740157,16.5480315 L15.4393701,16.5480315 L15.4393701,7.96535433 L18.2740157,7.96535433 L18.2740157,16.5480315 Z M19.6913386,6.31181102 C20.2425197,6.86299213 19.6913386,7.25669291 19.6913386,7.25669291 L1.10866142,7.25669291 C0.478740157,6.86299213 1.10866142,6.31181102 1.10866142,6.31181102 L10.4,0.8 L19.6913386,6.31181102 Z M9.69133858,16.5480315 L6.85669291,16.5480315 L6.85669291,7.96535433 L9.69133858,7.96535433 L9.69133858,16.5480315 Z M5.43937008,16.5480315 L2.52598425,16.5480315 L2.52598425,7.96535433 L5.43937008,7.96535433 L5.43937008,16.5480315 Z M19.0614173,17.5716535 L20.4,19.6188976 L20.4,20.8 L0.4,20.8 L0.4,19.6188976 L1.97480315,17.5716535 L19.0614173,17.5716535 Z"/>
</svg>
